<?xml version="1.0"?>
<svg xmlns="http://www.w3.org/2000/svg" xmlns:xlink="http://www.w3.org/1999/xlink" xmlns:svgjs="http://svgjs.com/svgjs" version="1.1" width="512" height="512" x="0" y="0" viewBox="0 0 512 512" style="enable-background:new 0 0 512 512" xml:space="preserve" class=""><g>
<path xmlns="http://www.w3.org/2000/svg" style="" d="M257,0C116.3,0,0,114.3,0,255s116.3,257,257,257s255-116.3,255-257S397.7,0,257,0z" fill="#fdbc00" data-original="#32d736" class=""/>
<path xmlns="http://www.w3.org/2000/svg" style="" d="M512,255c0,140.7-114.3,257-255,257V0C397.7,0,512,114.3,512,255z" fill="#f79400" data-original="#10bb67" class=""/>
<path xmlns="http://www.w3.org/2000/svg" style="" d="M422,255c0,16.5-13.5,30-30,30H287v107c0,16.5-13.5,30-30,30s-30-13.5-30-30V285H120  c-16.5,0-30-13.5-30-30s13.5-30,30-30h107V120c0-16.5,13.5-30,30-30s30,13.5,30,30v105h105C408.5,225,422,238.5,422,255z" fill="#ffffff" data-original="#e1e4fb" class=""/>
<path xmlns="http://www.w3.org/2000/svg" style="" d="M422,255c0,16.5-13.5,30-30,30H287v107c0,16.5-13.5,30-30,30V90c16.5,0,30,13.5,30,30v105h105  C408.5,225,422,238.5,422,255z" fill="#ffffff" data-original="#c5c9f7" class=""/>
<g xmlns="http://www.w3.org/2000/svg">
</g>
<g xmlns="http://www.w3.org/2000/svg">
</g>
<g xmlns="http://www.w3.org/2000/svg">
</g>
<g xmlns="http://www.w3.org/2000/svg">
</g>
<g xmlns="http://www.w3.org/2000/svg">
</g>
<g xmlns="http://www.w3.org/2000/svg">
</g>
<g xmlns="http://www.w3.org/2000/svg">
</g>
<g xmlns="http://www.w3.org/2000/svg">
</g>
<g xmlns="http://www.w3.org/2000/svg">
</g>
<g xmlns="http://www.w3.org/2000/svg">
</g>
<g xmlns="http://www.w3.org/2000/svg">
</g>
<g xmlns="http://www.w3.org/2000/svg">
</g>
<g xmlns="http://www.w3.org/2000/svg">
</g>
<g xmlns="http://www.w3.org/2000/svg">
</g>
<g xmlns="http://www.w3.org/2000/svg">
</g>
</g></svg>
